fpga_riscv/riscv_out.vcd
$date
	Wed Mar 12 23:56:28 2025
$end
$version
	Icarus Verilog
$end
$timescale
	100ps
$end
$scope module cpu_tb $end
$var wire 5 ! stall [4:0] $end
$var wire 32 " memwb_wdata [31:0] $end
$var wire 1 # memwb_wb_reg_wr $end
$var wire 5 $ memwb_rd [4:0] $end
$var wire 5 % flush [4:0] $end
$var wire 1 & exmem_wb_reg_wr $end
$var wire 5 ' exmem_rd [4:0] $end
$var wire 32 ( exmem_alu [31:0] $end
$var reg 1 ) clk $end
$var reg 1 * rst $end
$scope module d_mem $end
$var wire 32 + addr [31:0] $end
$var wire 1 ) clk $end
$var wire 1 * rst $end
$var wire 32 , wdata_i [31:0] $end
$var wire 4 - unique_f3 [3:0] $end
$var wire 1 . mem_wr_i $end
$var wire 1 / mem_re_i $end
$var wire 3 0 mem_f3_i [2:0] $end
$var reg 32 1 data [31:0] $end
$upscope $end
$scope module ex_mem_reg_0 $end
$var wire 1 ) clk $end
$var wire 1 * rst $end
$var wire 5 2 stall_i [4:0] $end
$var wire 32 3 wdata_i [31:0] $end
$var wire 1 4 wb_reg_wr_i $end
$var wire 1 5 wb_mem_sel_i $end
$var wire 5 6 rd_i [4:0] $end
$var wire 1 7 mem_wr_i $end
$var wire 1 8 mem_re_i $end
$var wire 3 9 mem_f3_i [2:0] $end
$var wire 32 : alu_i [31:0] $end
$var reg 32 ; alu [31:0] $end
$var reg 3 < mem_f3 [2:0] $end
$var reg 1 / mem_re $end
$var reg 1 . mem_wr $end
$var reg 5 = rd [4:0] $end
$var reg 1 > wb_mem_sel $end
$var reg 1 & wb_reg_wr $end
$var reg 32 ? wdata [31:0] $end
$upscope $end
$scope module ex_stage_0 $end
$var wire 1 @ br_jmp_en $end
$var wire 32 A exmem_alu_i [31:0] $end
$var wire 5 B exmem_rd_i [4:0] $end
$var wire 1 & exmem_wb_reg_wr_i $end
$var wire 32 C op1 [31:0] $end
$var wire 32 D op2 [31:0] $end
$var wire 1 * rst $end
$var wire 32 E wdata [31:0] $end
$var wire 5 F rd_i [4:0] $end
$var wire 5 G r2_i [4:0] $end
$var wire 32 H r2_forw_mux [31:0] $end
$var wire 5 I r1_i [4:0] $end
$var wire 32 J r1_forw_mux [31:0] $end
$var wire 32 K pc_mux [31:0] $end
$var wire 32 L pc_i [31:0] $end
$var wire 32 M memwb_wdata_i [31:0] $end
$var wire 1 # memwb_wb_reg_wr_i $end
$var wire 5 N memwb_rd_i [4:0] $end
$var wire 32 O imm_mux [31:0] $end
$var wire 32 P imm_i [31:0] $end
$var wire 1 Q ex_pc_sel_i $end
$var wire 1 R ex_lui_i $end
$var wire 1 S ex_jmp_i $end
$var wire 1 T ex_imm_sel_i $end
$var wire 7 U ex_f7_mux [6:0] $end
$var wire 7 V ex_f7_i [6:0] $end
$var wire 3 W ex_f3_mux [2:0] $end
$var wire 3 X ex_f3_i [2:0] $end
$var wire 1 Y ex_br_i $end
$var wire 32 Z d2_i [31:0] $end
$var wire 32 [ d1_i [31:0] $end
$var wire 32 \ alu [31:0] $end
$var reg 2 ] r1_forw_sel [1:0] $end
$var reg 2 ^ r2_forw_sel [1:0] $end
$scope module alu_0 $end
$var wire 1 _ c $end
$var wire 3 ` f3_i [2:0] $end
$var wire 7 a f7_i [6:0] $end
$var wire 1 b n $end
$var wire 32 c op1_i [31:0] $end
$var wire 32 d op2_i [31:0] $end
$var wire 1 * rst $end
$var wire 1 e v_sub $end
$var wire 1 f z $end
$var wire 32 g alu [31:0] $end
$var reg 33 h alu_arithm [32:0] $end
$upscope $end
$scope module br_unit_0 $end
$var wire 32 i op1_i [31:0] $end
$var wire 32 j op2_i [31:0] $end
$var wire 1 * rst $end
$var wire 1 k v_sub $end
$var wire 1 l z $end
$var wire 32 m sub_s [31:0] $end
$var wire 32 n op2_n [31:0] $end
$var wire 1 o n $end
$var wire 1 p c $end
$var wire 3 q br_f3_i [2:0] $end
$var wire 33 r alu_arithm [32:0] $end
$var reg 1 s branch_taken $end
$upscope $end
$upscope $end
$scope module i_mem $end
$var wire 1 ) clk $end
$var wire 32 t data_i [31:0] $end
$var wire 1 u re $end
$var wire 1 * rst $end
$var wire 1 v we $end
$var wire 32 w addr [31:0] $end
$var reg 32 x data [31:0] $end
$upscope $end
$scope module id_ex_reg_0 $end
$var wire 1 ) clk $end
$var wire 5 y flush_i [4:0] $end
$var wire 1 * rst $end
$var wire 5 z stall_i [4:0] $end
$var wire 1 { wb_reg_wr_i $end
$var wire 1 | wb_mem_sel_i $end
$var wire 5 } rd_i [4:0] $end
$var wire 5 ~ r2_i [4:0] $end
$var wire 5 !" r1_i [4:0] $end
$var wire 32 "" pc_i [31:0] $end
$var wire 1 #" mem_wr_i $end
$var wire 1 $" mem_re_i $end
$var wire 3 %" mem_f3_i [2:0] $end
$var wire 32 &" imm_i [31:0] $end
$var wire 1 '" ex_pc_sel_i $end
$var wire 1 (" ex_lui_i $end
$var wire 1 )" ex_jmp_i $end
$var wire 1 *" ex_imm_sel_i $end
$var wire 7 +" ex_f7_i [6:0] $end
$var wire 3 ," ex_f3_i [2:0] $end
$var wire 1 -" ex_br_i $end
$var wire 32 ." d2_i [31:0] $end
$var wire 32 /" d1_i [31:0] $end
$var reg 32 0" d1 [31:0] $end
$var reg 32 1" d2 [31:0] $end
$var reg 1 Y ex_br $end
$var reg 3 2" ex_f3 [2:0] $end
$var reg 7 3" ex_f7 [6:0] $end
$var reg 1 T ex_imm_sel $end
$var reg 1 S ex_jmp $end
$var reg 1 R ex_lui $end
$var reg 1 Q ex_pc_sel $end
$var reg 32 4" imm [31:0] $end
$var reg 3 5" mem_f3 [2:0] $end
$var reg 1 8 mem_re $end
$var reg 1 7 mem_wr $end
$var reg 32 6" pc [31:0] $end
$var reg 5 7" r1 [4:0] $end
$var reg 5 8" r2 [4:0] $end
$var reg 5 9" rd [4:0] $end
$var reg 1 5 wb_mem_sel $end
$var reg 1 4 wb_reg_wr $end
$upscope $end
$scope module id_stage_0 $end
$var wire 1 ) clk $end
$var wire 5 :" reg_file_waddr_i [4:0] $end
$var wire 32 ;" reg_file_wdata_i [31:0] $end
$var wire 1 <" reg_file_we_i $end
$var wire 1 * rst $end
$var wire 32 =" x0 [31:0] $end
$var wire 32 >" x1 [31:0] $end
$var wire 32 ?" x10 [31:0] $end
$var wire 32 @" x11 [31:0] $end
$var wire 32 A" x12 [31:0] $end
$var wire 32 B" x2 [31:0] $end
$var wire 32 C" x3 [31:0] $end
$var wire 32 D" x4 [31:0] $end
$var wire 32 E" x5 [31:0] $end
$var wire 32 F" x6 [31:0] $end
$var wire 32 G" x7 [31:0] $end
$var wire 32 H" x8 [31:0] $end
$var wire 32 I" x9 [31:0] $end
$var wire 10 J" unique_f3 [9:0] $end
$var wire 5 K" rd [4:0] $end
$var wire 5 L" r2 [4:0] $end
$var wire 5 M" r1 [4:0] $end
$var wire 7 N" op [6:0] $end
$var wire 32 O" ins_i [31:0] $end
$var wire 32 P" imm [31:0] $end
$var wire 7 Q" f7 [6:0] $end
$var wire 3 R" f3 [2:0] $end
$var wire 32 S" d2 [31:0] $end
$var wire 32 T" d1 [31:0] $end
$var reg 1 -" ex_br $end
$var reg 3 U" ex_f3 [2:0] $end
$var reg 7 V" ex_f7 [6:0] $end
$var reg 1 *" ex_imm_sel $end
$var reg 1 )" ex_jmp $end
$var reg 1 (" ex_lui $end
$var reg 1 '" ex_pc_sel $end
$var reg 3 W" mem_f3 [2:0] $end
$var reg 1 $" mem_re $end
$var reg 1 #" mem_wr $end
$var reg 1 | wb_mem_sel $end
$var reg 1 { wb_reg_wr $end
$scope module imm_gen_0 $end
$var wire 1 X" I_type $end
$var wire 1 Y" U_type $end
$var wire 7 Z" op [6:0] $end
$var wire 1 * rst $end
$var wire 32 [" ins_i [31:0] $end
$var wire 32 \" imm_out [31:0] $end
$var wire 32 ]" U_imm [31:0] $end
$var wire 1 ^" S_type $end
$var wire 32 _" S_imm [31:0] $end
$var wire 1 `" J_type $end
$var wire 32 a" J_imm [31:0] $end
$var wire 32 b" I_imm [31:0] $end
$var wire 1 c" B_type $end
$var wire 32 d" B_imm [31:0] $end
$upscope $end
$scope module reg_file_0 $end
$var wire 1 ) clk $end
$var wire 5 e" r1 [4:0] $end
$var wire 5 f" r2 [4:0] $end
$var wire 1 g" re1 $end
$var wire 1 h" re2 $end
$var wire 1 * rst $end
$var wire 5 i" waddr [4:0] $end
$var wire 32 j" wdata [31:0] $end
$var wire 1 <" we $end
$var reg 32 k" d1 [31:0] $end
$var reg 32 l" d2 [31:0] $end
$var integer 32 m" i [31:0] $end
$upscope $end
$upscope $end
$scope module if_id_reg_0 $end
$var wire 1 ) clk $end
$var wire 5 n" flush_i [4:0] $end
$var wire 32 o" ins_i [31:0] $end
$var wire 1 * rst $end
$var wire 5 p" stall_i [4:0] $end
$var wire 32 q" pc_i [31:0] $end
$var reg 32 r" ins [31:0] $end
$var reg 32 s" pc [31:0] $end
$upscope $end
$scope module mem_wb_reg_0 $end
$var wire 32 t" alu_i [31:0] $end
$var wire 1 ) clk $end
$var wire 32 u" d_mem_i [31:0] $end
$var wire 5 v" rd_i [4:0] $end
$var wire 1 * rst $end
$var wire 5 w" stall_i [4:0] $end
$var wire 1 > wb_mem_sel_i $end
$var wire 1 & wb_reg_wr_i $end
$var reg 32 x" alu [31:0] $end
$var reg 32 y" d_mem [31:0] $end
$var reg 5 z" rd [4:0] $end
$var reg 1 {" wb_mem_sel $end
$var reg 1 # wb_reg_wr $end
$upscope $end
$scope module pc_reg_0 $end
$var wire 32 |" br_addr [31:0] $end
$var wire 1 }" br_en $end
$var wire 1 ) clk $end
$var wire 1 * rst $end
$var wire 5 ~" stall_i [4:0] $end
$var reg 32 !# pc [31:0] $end
$upscope $end
$scope module wb_stage_0 $end
$var wire 32 "# alu_i [31:0] $end
$var wire 1 ) clk $end
$var wire 32 ## d_mem_i [31:0] $end
$var wire 1 * rst $end
$var wire 1 > wb_mem_sel_i $end
$var wire 32 $# reg_data_mux [31:0] $end
$var wire 32 %# reg_data [31:0] $end
$upscope $end
$upscope $end
$enddefinitions $end
#0
$dumpvars
b0 %#
bx $#
bx ##
bx "#
bx !#
b0 ~"
x}"
bx |"
x{"
bx z"
bx y"
bx x"
b0 w"
bx v"
b0 u"
bx t"
bx s"
bx r"
bx q"
b0 p"
b0 o"
b0xx0 n"
b100000 m"
b0 l"
b0 k"
b0 j"
bx i"
zh"
zg"
bx f"
bx e"
bx0 d"
xc"
bx b"
bx0 a"
x`"
bx _"
x^"
bx000000000000 ]"
bx \"
bx ["
bx Z"
xY"
xX"
b0 W"
b0 V"
b0 U"
b0 T"
b0 S"
bx R"
bx Q"
bx P"
bx O"
bx N"
bx M"
bx L"
bx K"
bx J"
b0 I"
b0 H"
b0 G"
b0 F"
b0 E"
b0 D"
b0 C"
b0 B"
b0 A"
b0 @"
b0 ?"
b0 >"
b0 ="
x<"
b0 ;"
bx :"
bx 9"
bx 8"
bx 7"
bx 6"
bx 5"
bx 4"
bx 3"
bx 2"
bx 1"
bx 0"
b0 /"
b0 ."
0-"
b0 ,"
b0 +"
0*"
0)"
0("
0'"
bx &"
b0 %"
0$"
0#"
bx ""
bx !"
bx ~
bx }
0|
0{
b0 z
b0xx0 y
b0 x
bx w
0v
1u
bz t
0s
bx r
bx q
xp
xo
bx n
bx m
xl
xk
bx j
bx i
b0 h
b0 g
zf
ze
bx d
bx c
zb
bx a
bx `
z_
bx ^
bx ]
bx \
bx [
bx Z
xY
bx X
bx W
bx V
bx U
xT
xS
xR
xQ
bx P
bx O
bx N
b0 M
bx L
bx K
bx J
bx I
bx H
bx G
bx F
bx E
bx D
bx C
bx B
bx A
x@
bx ?
x>
bx =
bx <
bx ;
bx :
bx 9
x8
x7
bx 6
x5
x4
bx 3
b0 2
b0 1
bx 0
x/
x.
bx -
bx ,
b0xxxxxxxxxxxxxxxxxxxxxxxxxxxxxxx +
1*
0)
bx (
bx '
x&
b0xx0 %
bx $
x#
b0 "
b0 !
$end
#50
b0 ^
b0 ]
0k
b0 m
0p
0o
1l
b0 D
b0 d
b0 3
b0 E
b0 O
b0 r
b0 n
b0 C
b0 c
b0 K
b0 H
b0 j
b0 J
b0 i
b0 a"
b0 &"
b0 P"
b0 \"
0X"
0Y"
b0 ]"
b0 d"
b0 _"
b0 b"
b0 Q"
b0 R"
b0 }
b0 K"
b0 ~
b0 L"
b0 f"
b0 !"
b0 M"
b0 e"
b0 J"
0`"
0^"
0c"
b0 N"
b0 Z"
b0 %
b0 y
b0 n"
0}"
0@
b0 U
b0 a
b0 W
b0 `
b0 |"
b0 :
b0 \
b0 +
b0 $#
b0 w
b0 q"
b0 !#
b0 O"
b0 ["
b0 r"
b0 ""
b0 s"
05
04
b0 9
b0 5"
07
08
0R
0Y
0S
0Q
0T
b0 V
b0 3"
b0 X
b0 q
b0 2"
b0 P
b0 4"
b0 Z
b0 1"
b0 [
b0 0"
b0 6
b0 F
b0 9"
b0 G
b0 8"
b0 I
b0 7"
b0 L
b0 6"
0>
0&
b0 0
b0 <
b0 -
0.
0/
b0 ,
b0 ?
b0 (
b0 ;
b0 A
b0 t"
b0 '
b0 =
b0 B
b0 v"
0{"
0<"
0#
b0 x"
b0 "#
b0 y"
b0 ##
b0 :"
b0 i"
b0 $
b0 N
b0 z"
1)
#100
1s
b10010001101000101010000110111 x
b10010001101000101010000110111 o"
0)
0*
#150
b10010001101000101000000000000 &"
b10010001101000101000000000000 P"
b10010001101000101000000000000 \"
b1000101100100100010 a"
1Y"
1{
1("
b10010001101000101000000000000 ]"
b100101000 d"
b100101000 _"
b100100011 b"
b1001 Q"
b101 R"
b1000 }
b1000 K"
b11 ~
b11 L"
b11 f"
b1000 !"
b1000 M"
b1000 e"
b110111101 J"
b110111 N"
b110111 Z"
b1000010111 x
b1000010111 o"
b10010001101000101010000110111 O"
b10010001101000101010000110111 ["
b10010001101000101010000110111 r"
b100 w
b100 q"
b100 !#
1)
#200
0)
#250
b0 &"
b0 P"
b0 \"
b0 a"
0("
1'"
1*"
b1100000100000001000010011 x
b1100000100000001000010011 o"
b0 ]"
b100 d"
b100 _"
b0 b"
b0 Q"
b0 R"
b100 }
b100 K"
b0 ~
b0 L"
b0 f"
b0 !"
b0 M"
b0 e"
b10111000 J"
b10111 N"
b10111 Z"
b10010001101000101000000000000 |"
b10010001101000101000000000000 :
b10010001101000101000000000000 \
b1000 w
b1000 q"
b1000 !#
b1000010111 O"
b1000010111 ["
b1000010111 r"
b100 ""
b100 s"
14
1R
b10010001101000101000000000000 P
b10010001101000101000000000000 4"
b1000 6
b1000 F
b1000 9"
b11 G
b11 8"
b1000 I
b1000 7"
1)
#300
0)
#350
b100 g
b100 h
b11000 &"
b11000 P"
b11000 \"
b100000000000011000 a"
1X"
0Y"
0'"
b10010001101000101000000000000 +
b100 C
b100 c
b100 K
b100 |"
b100 :
b100 \
b1100000100000000000000000 ]"
b11000 b"
b11000 ~
b11000 L"
b11000 f"
b100 !"
b100 M"
b100 e"
b10011000 J"
b10011 N"
b10011 Z"
b1000000000000110010011 x
b1000000000000110010011 o"
1&
b10010001101000101000000000000 (
b10010001101000101000000000000 ;
b10010001101000101000000000000 A
b10010001101000101000000000000 t"
b1000 '
b1000 =
b1000 B
b1000 v"
0R
1Q
1T
b0 P
b0 4"
b100 6
b100 F
b100 9"
b0 G
b0 8"
b0 I
b0 7"
b100 L
b100 6"
b1100000100000001000010011 O"
b1100000100000001000010011 ["
b1100000100000001000010011 r"
b1000 ""
b1000 s"
b1100 w
b1100 q"
b1100 !#
1)
#400
0)
#450
0s
b11100 |"
b11100 :
b11100 \
b100 m
0l
b11100 g
b100 r
b100 J
b100 i
b11100 h
b1 ]
b10 a"
b10 &"
b10 P"
b10 \"
b10010001101000101000000000000 ;"
b10010001101000101000000000000 j"
b10010001101000101000000000000 "
b10010001101000101000000000000 M
b10010001101000101000000000000 %#
b100010011 x
b100010011 o"
b1000000000000000000000 ]"
b100000000010 d"
b11 _"
b10 b"
b11 }
b11 K"
b10 ~
b10 L"
b10 f"
b0 !"
b0 M"
b0 e"
b11000 D
b11000 d
b11000 3
b11000 E
b11000 O
b100 C
b100 c
b100 K
b100 +
b10010001101000101000000000000 $#
b10000 w
b10000 q"
b10000 !#
b1000000000000110010011 O"
b1000000000000110010011 ["
b1000000000000110010011 r"
b1100 ""
b1100 s"
0Q
b11000 P
b11000 4"
b11000 G
b11000 8"
b100 I
b100 7"
b1000 L
b1000 6"
b100 (
b100 ;
b100 A
b100 t"
b100 '
b100 =
b100 B
b100 v"
1<"
1#
b10010001101000101000000000000 x"
b10010001101000101000000000000 "#
b1000 :"
b1000 i"
b1000 $
b1000 N
b1000 z"
1)
#500
0)
#550
1s
b10 |"
b10 :
b10 \
1l
b10 g
b10 h
b0 ]
b0 C
b0 c
b0 K
b0 m
b100 ;"
b100 j"
b100 "
b100 M
b100 %#
b0 r
b0 J
b0 i
b0 a"
b0 &"
b0 P"
b0 \"
b100 $#
b11100 +
b10 D
b10 d
b10 3
b10 E
b10 O
b0 ]"
b10 d"
b10 _"
b0 b"
b10 }
b10 K"
b0 ~
b0 L"
b0 f"
b100000000000010010011 x
b100000000000010010011 o"
b100 x"
b100 "#
b100 :"
b100 i"
b100 $
b100 N
b100 z"
b11000 ,
b11000 ?
b11100 (
b11100 ;
b11100 A
b11100 t"
b10 P
b10 4"
b11 6
b11 F
b11 9"
b10 G
b10 8"
b0 I
b0 7"
b1100 L
b1100 6"
b10010001101000101000000000000 H"
b100010011 O"
b100010011 ["
b100010011 r"
b10000 ""
b10000 s"
b10100 w
b10100 q"
b10100 !#
1)
#600
0)
#650
b0 |"
b0 :
b0 \
b0 g
b0 h
b100000000000 a"
b1 &"
b1 P"
b1 \"
b11100 ;"
b11100 j"
b11100 "
b11100 M
b11100 %#
b10000000000000001101111 x
b10000000000000001101111 o"
b100000000000000000000 ]"
b100000000000 d"
b1 _"
b1 b"
b1 }
b1 K"
b1 ~
b1 L"
b1 f"
b0 D
b0 d
b0 3
b0 E
b0 O
b10 +
b11100 $#
b11000 w
b11000 q"
b11000 !#
b100000000000010010011 O"
b100000000000010010011 ["
b100000000000010010011 r"
b10100 ""
b10100 s"
b100 D"
b0 P
b0 4"
b10 6
b10 F
b10 9"
b0 G
b0 8"
b10000 L
b10000 6"
b10 ,
b10 ?
b10 (
b10 ;
b10 A
b10 t"
b11 '
b11 =
b11 B
b11 v"
b11100 x"
b11100 "#
1)
#700
0)
#750
b1 |"
b1 :
b1 \
b1 g
b1 h
b11100 ."
b11100 S"
b11100 l"
b10 ;"
b10 j"
b10 "
b10 M
b10 %#
b100 a"
b100 &"
b100 P"
b100 \"
0X"
0{
1)"
1'"
b10 $#
b0 +
b1 D
b1 d
b1 3
b1 E
b1 O
b10000000000000000000000 ]"
b0 d"
b0 _"
b100 b"
b0 }
b0 K"
b100 ~
b100 L"
b100 f"
b1101111000 J"
1`"
b1101111 N"
b1101111 Z"
b1000011100011001100011 x
b1000011100011001100011 o"
b10 x"
b10 "#
b11 :"
b11 i"
b11 $
b11 N
b11 z"
b0 ,
b0 ?
b0 (
b0 ;
b0 A
b0 t"
b10 '
b10 =
b10 B
b10 v"
b1 P
b1 4"
b1 6
b1 F
b1 9"
b1 G
b1 8"
b10100 L
b10100 6"
b11100 D"
b10000000000000001101111 O"
b10000000000000001101111 ["
b10000000000000001101111 r"
b11000 ""
b11000 s"
b11100 w
b11100 q"
b11100 !#
1)
#800
0)
#850
b11100 |"
b11100 :
b11100 \
b11100 g
0s
b0 ."
b0 S"
b0 l"
b10 /"
b10 T"
b10 k"
b11100 h
b1100 &"
b1100 P"
b1100 \"
b11111111111111111111111111100100 m
1o
0l
b11100000000000010 a"
1-"
0)"
b100 ,"
b100 U"
b11111111111111111111111111100100 r
b11111111111111111111111111100100 n
b0 ;"
b0 j"
b0 "
b0 M
b0 %#
b100010000000100110011 x
b100010000000100110011 o"
b1000011100000000000000 ]"
b1100 d"
b1100 _"
b10 b"
b100 R"
b1100 }
b1100 K"
b10 ~
b10 L"
b10 f"
b11 !"
b11 M"
b11 e"
b1100011100 J"
0`"
1c"
b1100011 N"
b1100011 Z"
b110 %
b110 y
b110 n"
1}"
1@
b11000 C
b11000 c
b11000 K
b100 D
b100 d
b100 3
b100 E
b100 O
b11100 H
b11100 j
b1 +
b0 $#
b100000 w
b100000 q"
b100000 !#
b1000011100011001100011 O"
b1000011100011001100011 ["
b1000011100011001100011 r"
b11100 ""
b11100 s"
b10 C"
04
1S
1Q
b100 P
b100 4"
b11100 Z
b11100 1"
b0 6
b0 F
b0 9"
b100 G
b100 8"
b11000 L
b11000 6"
b1 ,
b1 ?
b1 (
b1 ;
b1 A
b1 t"
b1 '
b1 =
b1 B
b1 v"
b0 x"
b0 "#
b10 :"
b10 i"
b10 $
b10 N
b10 z"
1)
#900
0)
#950
b0 |"
b0 :
b0 \
b0 g
1s
b0 h
b0 /"
b0 T"
b0 k"
b0 m
0o
1l
b0 &"
b0 P"
b0 \"
b1 ;"
b1 j"
b1 "
b1 M
b1 %#
b0 r
b0 n
b0 a"
1X"
1{
0-"
0'"
b0 ,"
b0 U"
b1 $#
b11100 +
b0 %
b0 y
b0 n"
0}"
0@
b0 D
b0 d
b0 3
b0 E
b0 O
b0 H
b0 j
b0 C
b0 c
b0 K
b0 ]"
b0 d"
b0 _"
b0 b"
b0 R"
b0 }
b0 K"
b0 ~
b0 L"
b0 f"
b0 !"
b0 M"
b0 e"
b10011000 J"
0c"
b10011 N"
b10011 Z"
b1000011100011001100011 x
b1000011100011001100011 o"
b1 x"
b1 "#
b1 :"
b1 i"
b1 $
b1 N
b1 z"
0&
b100 ,
b100 ?
b11100 (
b11100 ;
b11100 A
b11100 t"
b0 '
b0 =
b0 B
b0 v"
0S
0Q
0T
b0 P
b0 4"
b0 Z
b0 1"
b0 G
b0 8"
b11100 L
b11100 6"
b10011 O"
b10011 ["
b10011 r"
b11100 w
b11100 q"
b11100 !#
1)
#1000
0)
#1050
b10 /"
b10 T"
b10 k"
b1100 &"
b1100 P"
b1100 \"
b11100000000000010 a"
0X"
0{
1-"
1'"
b100 ,"
b100 U"
b11100 ;"
b11100 j"
b11100 "
b11100 M
b11100 %#
b100010000000100110011 x
b100010000000100110011 o"
b1000011100000000000000 ]"
b1100 d"
b1100 _"
b10 b"
b100 R"
b1100 }
b1100 K"
b10 ~
b10 L"
b10 f"
b11 !"
b11 M"
b11 e"
b1100011100 J"
1c"
b1100011 N"
b1100011 Z"
b0 +
b11100 $#
b100000 w
b100000 q"
b100000 !#
b1000011100011001100011 O"
b1000011100011001100011 ["
b1000011100011001100011 r"
b1 >"
14
1T
b0 ,
b0 ?
b0 (
b0 ;
b0 A
b0 t"
0<"
0#
b11100 x"
b11100 "#
b0 :"
b0 i"
b0 $
b0 N
b0 z"
1)
#1100
0)
#1150
b101000 |"
b101000 :
b101000 \
b101000 g
b101000 h
b1 ."
b1 S"
b1 l"
b0 /"
b0 T"
b0 k"
0s
b0 &"
b0 P"
b0 \"
b0 ;"
b0 j"
b0 "
b0 M
b0 %#
b0 %
b0 y
b0 n"
0}"
0@
b10 m
0l
b10000100000000000 a"
1{
0-"
0'"
0*"
b0 ,"
b0 U"
b0 $#
b11100 C
b11100 c
b11100 K
b0 W
b0 `
b1100 D
b1100 d
b1100 3
b1100 E
b1100 O
b10 r
b10 J
b10 i
b100010000000000000000 ]"
b10 d"
b10 _"
b1 b"
b0 R"
b10 }
b10 K"
b1 ~
b1 L"
b1 f"
b10 !"
b10 M"
b10 e"
b110011000 J"
0c"
b110011 N"
b110011 Z"
b100000001111100111 x
b100000001111100111 o"
b0 x"
b0 "#
1&
04
1Y
1Q
b100 X
b100 q
b100 2"
b1100 P
b1100 4"
b10 [
b10 0"
b1100 6
b1100 F
b1100 9"
b10 G
b10 8"
b11 I
b11 7"
b100010000000100110011 O"
b100010000000100110011 ["
b100010000000100110011 r"
b100000 ""
b100000 s"
b100100 w
b100100 q"
b100100 !#
1)
#1200
0)
#1250
b1 |"
b1 :
b1 \
b1 g
0s
b0 ."
b0 S"
b0 l"
b11100 /"
b11100 T"
b11100 k"
b1 h
1o
b100000000000000000 a"
1)"
1*"
b11111111111111111111111111111111 n
b11111111111111111111111111111111 m
0l
b10100000000001010010011 x
b10100000000001010010011 o"
b100000000000000000 ]"
b100000000110 d"
b111 _"
b0 b"
b111 }
b111 K"
b0 ~
b0 L"
b0 f"
b100 !"
b100 M"
b100 e"
b1100111000 J"
b1100111 N"
b1100111 Z"
b1 D
b1 d
b1 3
b1 E
b1 O
b1 H
b1 j
b11111111111111111111111111111111 r
b0 J
b0 i
b0 C
b0 c
b0 K
b101000 +
b101000 w
b101000 q"
b101000 !#
b100000001111100111 O"
b100000001111100111 ["
b100000001111100111 r"
b100100 ""
b100100 s"
14
0Y
0Q
0T
b0 X
b0 q
b0 2"
b0 P
b0 4"
b1 Z
b1 1"
b0 [
b0 0"
b10 6
b10 F
b10 9"
b1 G
b1 8"
b10 I
b10 7"
b100000 L
b100000 6"
0&
b1100 ,
b1100 ?
b101000 (
b101000 ;
b101000 A
b101000 t"
b1100 '
b1100 =
b1100 B
b1100 v"
1<"
1#
1)
#1300
0)
#1350
b11100 |"
b11100 :
b11100 \
b11100 g
b11100 h
b0 /"
b0 T"
b0 k"
b101 &"
b101 P"
b101 \"
b101000 ;"
b101000 j"
b101000 "
b101000 M
b101000 %#
b0 n
b11100 C
b11100 c
b11100 K
b11100 m
0p
0o
b100000000100 a"
1X"
0)"
b101000 $#
b1 +
b110 %
b110 y
b110 n"
1}"
1@
b0 D
b0 d
b0 3
b0 E
b0 O
b0 H
b0 j
b11100 r
b11100 J
b11100 i
b10100000000000000000000 ]"
b100000000100 d"
b101 _"
b101 b"
b101 }
b101 K"
b101 ~
b101 L"
b101 f"
b0 !"
b0 M"
b0 e"
b10011000 J"
b10011 N"
b10011 Z"
b0 x
b0 o"
0<"
0#
b101000 x"
b101000 "#
b1100 :"
b1100 i"
b1100 $
b1100 N
b1100 z"
1&
b1 ,
b1 ?
b1 (
b1 ;
b1 A
b1 t"
b10 '
b10 =
b10 B
b10 v"
1S
1T
b0 Z
b0 1"
b11100 [
b11100 0"
b111 6
b111 F
b111 9"
b0 G
b0 8"
b100 I
b100 7"
b100100 L
b100100 6"
b10100000000001010010011 O"
b10100000000001010010011 ["
b10100000000001010010011 r"
b101000 ""
b101000 s"
b101100 w
b101100 q"
b101100 !#
1)
#1400
0)
#1450
b0 |"
b0 :
b0 \
b0 g
b0 h
1s
b0 a"
b0 &"
b0 P"
b0 \"
b0 C
b0 c
b0 K
b0 m
1l
b1 ;"
b1 j"
b1 "
b1 M
b1 %#
b1000011100011001100011 x
b1000011100011001100011 o"
b0 ]"
b0 d"
b0 _"
b0 b"
b0 }
b0 K"
b0 ~
b0 L"
b0 f"
b0 %
b0 y
b0 n"
0}"
0@
b0 r
b0 J
b0 i
b11100 +
b1 $#
b11100 w
b11100 q"
b11100 !#
b10011 O"
b10011 ["
b10011 r"
04
0S
0T
b0 [
b0 0"
b0 6
b0 F
b0 9"
b0 I
b0 7"
b101000 L
b101000 6"
b0 ,
b0 ?
b11100 (
b11100 ;
b11100 A
b11100 t"
b111 '
b111 =
b111 B
b111 v"
1<"
1#
b1 x"
b1 "#
b10 :"
b10 i"
b10 $
b10 N
b10 z"
1)
#1500
0)
#1550
b1 ."
b1 S"
b1 l"
b10 /"
b10 T"
b10 k"
b1100 &"
b1100 P"
b1100 \"
b11100 ;"
b11100 j"
b11100 "
b11100 M
b11100 %#
b11100000000000010 a"
0X"
0{
1-"
1'"
b100 ,"
b100 U"
b11100 $#
b0 +
b1000011100000000000000 ]"
b1100 d"
b1100 _"
b10 b"
b100 R"
b1100 }
b1100 K"
b10 ~
b10 L"
b10 f"
b11 !"
b11 M"
b11 e"
b1100011100 J"
1c"
b1100011 N"
b1100011 Z"
b100010000000100110011 x
b100010000000100110011 o"
b11100 x"
b11100 "#
b111 :"
b111 i"
b111 $
b111 N
b111 z"
0&
b0 (
b0 ;
b0 A
b0 t"
b0 '
b0 =
b0 B
b0 v"
14
1T
b1 B"
b1000011100011001100011 O"
b1000011100011001100011 ["
b1000011100011001100011 r"
b11100 ""
b11100 s"
b100000 w
b100000 q"
b100000 !#
1)
#1600
0)
#1650
b101000 |"
b101000 :
b101000 \
b101000 g
b1 /"
b1 T"
b1 k"
b101000 h
0s
b0 &"
b0 P"
b0 \"
1p
b10000100000000000 a"
1{
0-"
0'"
0*"
b0 ,"
b0 U"
b0 %
b0 y
b0 n"
0}"
0@
b11111111111111111111111111111111 n
b1 m
0l
b0 ;"
b0 j"
b0 "
b0 M
b0 %#
b100000001111100111 x
b100000001111100111 o"
b100010000000000000000 ]"
b10 d"
b10 _"
b1 b"
b0 R"
b10 }
b10 K"
b1 ~
b1 L"
b1 f"
b10 !"
b10 M"
b10 e"
b110011000 J"
0c"
b110011 N"
b110011 Z"
b11100 C
b11100 c
b11100 K
b0 W
b0 `
b1100 D
b1100 d
b1100 3
b1100 E
b1100 O
b1 H
b1 j
b100000000000000000000000000000001 r
b10 J
b10 i
b0 $#
b100100 w
b100100 q"
b100100 !#
b100010000000100110011 O"
b100010000000100110011 ["
b100010000000100110011 r"
b100000 ""
b100000 s"
b11100 G"
04
1Y
1Q
b100 X
b100 q
b100 2"
b1100 P
b1100 4"
b1 Z
b1 1"
b10 [
b10 0"
b1100 6
b1100 F
b1100 9"
b10 G
b10 8"
b11 I
b11 7"
b11100 L
b11100 6"
1&
0<"
0#
b0 x"
b0 "#
b0 :"
b0 i"
b0 $
b0 N
b0 z"
1)
#1700
0)
